TRFBCH,WHMOVE,TRFTLC,TRFBDT,ISORT,IDESCR,INUMBR,IUPC,WHMFSL,TRFROU,TRFREQ,IDEPT,ISSIZE,ISCOLR
328885,32670,80012,170724,1520101130,"STICK ON BRA/86/S3",6441369,2200864413697,PZ000001,700.00,1,7,S3,86
328885,32670,80012,170724,1520101130,"STICK ON BRA/86/S4",6441370,2200864413703,PZ000001,700.00,1,7,S4,86
328885,32670,80012,170724,1580104136,"1580104136/CONTROL DR/86/34B",6671091,2200866710916,PZ000001,3550.00,2,7,34B,86
328885,32670,80012,170724,1580104136,"1580104136/CONTROL DR/86/38B",6671099,2200866710992,PZ000001,3550.00,2,7,38B,86
328885,32670,80012,170724,1520107049,"1520107049/2 PK PAD N/78/34B",6917220,2200869172209,PZ000001,1850.00,3,7,34B,78
329043,32779,820,170803,0700108205,"STG BASIC CREW/43/SML",8385142,5045473782041,PZ000001,1350.00,1,2,SML,43
329583,33097,893,170811,1030301007,"RH FIESTA TASSLE VE/43/S16",8528474,5045475216155,PZ000001,1250.00,2,4,S16,43
329607,33106,80012,170811,1580104136,"1580104136/CONTROL DR/86/34B",6671091,2200866710916,PZ000001,3550.00,2,7,34B,86
329607,33106,80012,170811,1580104135,1580104135/INVISIBLE/86/S14,6671159,2200866711593,PZ000001,1950.00,2,7,S14,86
329607,33106,80012,170811,1580104135,1580104135/INVISIBLE/86/S8,6671163,2200866711630,PZ000001,1950.00,2,7,S8,86
329607,33106,80012,170811,1520103349,"1520103349/2PP PICOT/99/38B",7653037,2200876530375,PZ000001,1550.00,1,7,38B,99
329607,33106,80012,170811,1580103217,"1580103217/5PP HIGH L/60/S10",7703339,2200877033394,PZ000001,795.00,1,7,S10,60
329607,33106,80012,170811,1580103217,"1580103217/5PP HIGH L/60/S12",7703340,2200877033400,PZ000001,795.00,1,7,S12,60
329607,33106,80012,170811,1520202329,"COMFORT NON WIRE BR/86/36B",8074134,5045470605817,PZ000001,1850.00,2,7,36B,86
329607,33106,80012,170811,0200107870,"0200107870/MNE DENIM/45/S8S",8354949,5045473480114,PZ000001,2550.00,1,4,S8S,45
329607,33106,80012,170811,0380208725,"0380208725/BDL ATHNC/45/S18R",8407574,5045474006368,PZ000001,3450.00,1,4,S18R,45
329607,33106,80012,170811,0990108357,"RH BL MAGIC YARN PI/42/MED",8462939,5045474560037,PZ000001,1750.00,1,2,MED,42
329607,33106,80012,170811,3040569101,"SET OF 3 DOTTY TEAL/94/1SZE",8492311,5045474854082,PZ000001,.01,1,1,1SZE,94
329607,33106,80012,170811,1520101429,"MEGA BOOST GUIPURE/80/34A",8500460,5045474935576,PZ000001,2150.00,1,7,34A,80
329607,33106,80012,170811,1520101429,"MEGA BOOST GUIPURE/80/34B",8500461,5045474935583,PZ000001,2150.00,1,7,34B,80
329607,33106,80012,170811,0980108604,"RH TEE/80/4XL",8536250,5045475293934,PZ000001,1150.00,1,12,4XL,80
329607,33106,80012,170811,1030301005,"RH MULTI COLR STRIP/94/S20",8554036,5045475473404,PZ000001,1050.00,1,4,S20,94
329810,33229,80012,170816,0280301320,"COL STRIPE BUTTON T/45/S10",8547277,5045475404606,PZ000001,1850.00,5,4,S10,45
329810,33229,80012,170816,0280301320,"COL STRIPE BUTTON T/45/S12",8547278,5045475404613,PZ000001,1850.00,7,4,S12,45
329810,33229,80012,170816,0280301320,"COL STRIPE BUTTON T/45/S14",8547279,5045475404620,PZ000001,1850.00,13,4,S14,45
329810,33229,80012,170816,0280301320,"COL STRIPE BUTTON T/45/S16",8547280,5045475404637,PZ000001,1850.00,5,4,S16,45
329810,33229,80012,170816,0280301320,"COL STRIPE BUTTON T/45/S18",8547281,5045475404644,PZ000001,1850.00,5,4,S18,45
329810,33229,80012,170816,0280301320,"COL STRIPE BUTTON T/45/S20",8547282,5045475404651,PZ000001,1850.00,3,4,S20,45
329810,33229,80012,170816,0280301320,"COL STRIPE BUTTON T/45/S22",8547283,5045475404668,PZ000001,1850.00,2,4,S22,45
329831,33232,975,170823,2220201232,"BZG AW1 LS PANDA TO/81/306M",8529286,5045475224273,PZ000001,995.00,4,3,306M,81
