STRNUM,STRNAM,STADD1,STADD2
800,"Wellworth FT","Fairview Terraces",
801,"DEBENHAMS ECC",4,4
820,"DEBENHAMS SLP",0,0
884,"DEBENHAMS RCC Makati",0,0
893,"DEBENHAMS Trinoma",0,0
922,"DEBENHAMS ONLINE STORE",ONLINE,
944,"DEBENHAMS ABREEZA","JP Laurel Avenue",Bajada
975,"DEBENHAMS Paseo de Sta. Rosa","Sta Rosa Laguna",
7000,"POP UP Main",Makati,
8001,"DEBENHAMS Warehouse","Tunasan Muntinlupa",
8002,"DEBENHAMS CENTRAL OFFICE",Makati,
8003,"DEBENHAMS OFFSITE SALE",Makati,
8004,"Wellworth Warehouse","Tunasan, Muntinlupa",
8011,"ECC LAUNDRY/CLEAN/BORROWED","MERALCO AVE.","ESTANCIA CAPITOL HILLS BRGY OBANDO"
8012,"ECC Tester/Promo Item","MERALCO AVE.","ESTANCIA CAPITOL HILLS BRGY OBANDO"
8013,"ECC Conditional Sale","MERALCO AVE.","ESTANCIA CAPITOL HILLS BRGY OBANDO"
8014,"Estancia Food Clearance",Estancia,
8201,"SLP LAUNDRY/CLEAN/BORROWED",Mandaluyong,
8202,"SLP Tester/Promo Item",Madaluyong,
8203,"SLP Conditional Sale",Mandaluyong,
8204,"Shangri-la Food Clearance",Mandaluyong,
8841,"RCC LAUNDRY/CLEAN/BORROWED","Ayala, Makati",RCC
8842,"RCC TESTER/Promo Item","Ayala, Makati",RCC
8843,"RCC Conditional Sale","Ayala, Makati",RCC
8844,"RCC - Makati Food Clearance",RCC,
8931,"TNM LAUNDRY/CLEAN/BORROWED","North Avenue, Q.C.",
8932,"TNM TESTER/Promo Item","North Ave, Q.C.",
8933,"TNM Conditional Sale","North Ave. Q.C.",
8934,"Trinoma Food Clearance",Trinoma,
9441,"DVO Laundry/Clean/Borrowed","JP Laurel Avenue",Bajada
9442,"DVO Tester/Promo Item","JP Laurel Avenue",Bajada
9443,"DVO Conditional Sale","JP Laurel Avenue",Bajada
9444,"Davao Food Clearance",Davao,
9500,"DAVAO Warehouse DEBENHAMS",Davao,
9501,"DAVAO S&D WAREHOUSE DEBENHAMS","DAVAO CITY",
9502,"Davao Warehouse Sale Location","Davao City",
9503,"Davao Warehouse ForDestruction","Davao City",
9504,"Davao Warehouse Employee Sale","Davao City",
9751,"PDR LAUNDRY/CLEAN/BORROWED","Sta Rosa Laguna",
9752,"PDR TESTER/Promo Item","Sta Rosa Laguna",
9753,"PDR Conditional Sale","Sta Rosa Laguna",
9820,"SSI Life",Makati,
70001,"Pop up store1",Makati,
70002,"Pop up store2",Makati,
80011,"WAREHOUSE SALE LOCATION","Tunasan Muntinlupa",
80012,"Warehouse S&D for Approval","Tunasan Muntinlupa",
80013,"WAREHOUSE SOILED 30%","Tunasan Muntinlupa",
80014,"WAREHOUSE DAMAGED 50%","Tunasan Muntinlupa",
80015,"S&D - For Employee Sale","Tuansan, Muntinlupa",
80016,"WAREHOUSE DESTRUCTION","Tunasan, Muntinlupa",
80017,"For Investigation","Audit for Investigation Location",
80018,"Warehouse Food Clearance",Tunasan,
80021,"Debenhams Employee Sale",Makati,
80022,"Cosmetics Employee Sale","Head Office",
88001,"FT LAUNDRY/CLEAN/BORROWED","Fairview Terraces",
88002,"FT TESTER/Promo Item","Fairview Terraces",
