TRFBCH,INUMBR,IUPC,ISORT,TRFSHP
329813,8278953,5045472654202,1030307133,1
329813,8322792,5045473158488,1030307041,1
329813,8344907,5045473379692,1030307181,1
329813,8344910,5045473379722,1030307181,2
329813,8373619,5045473666815,1030308160,3
329813,8373620,5045473666822,1030308160,1
329813,8373622,5045473666846,1030308160,1
329813,8373624,5045473666860,1030308160,1
329813,8390217,5045473832791,1030308103,3
329813,8396522,5045473895840,1030308164,2
329813,8396526,5045473895888,1030308164,1
329813,8396527,5045473895895,1030308164,3
329813,8396528,5045473895901,1030308164,1
329813,8396534,5045473895963,1030308164,1
329813,8434839,5045474279014,1030308177,1
329813,8434840,5045474279021,1030308177,1
329813,8443062,5045474361245,1030308992,1
329813,8481194,5045474742754,1030308131,2
329813,8486517,5045474796085,1030308996,2
329813,8486519,5045474796108,1030308996,1
329813,8486520,5045474796115,1030308996,1
329813,8486521,5045474796122,1030308996,2
329813,8486527,5045474796184,1030308996,1
329813,8486528,5045474796191,1030308996,2
329814,8261828,5045472482881,0070207316,1
329814,8274945,5045472614121,0070207119,1
329814,8274948,5045472614152,0070207119,1
329814,8278238,5045472647051,0380207521,4
329814,8279121,5045472655889,0070207122,1
329814,8292506,5045472855623,0380207528,1
329814,8292514,5045472855708,0380207528,5
329814,8301477,5045472945331,1030307622,1
329814,8301479,5045472945355,1030307622,2
329814,8301480,5045472945362,1030307622,2
329814,8301541,5045472945973,1030307627,1
329814,8310958,5045473040141,1200107854,1
329814,8314296,5045473073521,1030307167,1
329814,8314298,5045473073545,1030307167,1
329814,8318484,5045473115405,1030307169,1
329814,8322795,5045473158518,1030307041,1
329814,8344910,5045473379722,1030307181,1
329814,8351099,5045473441610,1030307047,1
329814,8357548,5045473506104,0380208005,1
329814,8388607,5045473816692,0070208017,1
329814,8390217,5045473832791,1030308103,1
329814,8396389,5045473894515,1030308066,1
329814,8401635,5045473946979,1030308084,1
329814,8411766,5045474048283,0070208023,1
329814,8413388,5045474064504,0380208203,2
329814,8413395,5045474064573,0380208203,1
329814,8425662,5045474187241,1030308074,1
329814,8430194,5045474232569,0380208125,1
329814,8431895,5045474249574,0380208620,1
329814,8431896,5045474249581,0380208620,2
329814,8431898,5045474249604,0380208620,1
329814,8431901,5045474249635,0380208620,1
329814,8434837,5045474278994,1030308177,1
329814,8434840,5045474279021,1030308177,1
329814,8442831,5045474358931,1030308890,1
329814,8442832,5045474358948,1030308890,2
329814,8442835,5045474358979,1030308890,1
329814,8442987,5045474360491,1030308884,1
329814,8443091,5045474361535,1030308991,1
329814,8458967,5045474520314,0070208109,1
329814,8467742,5045474608067,0380208067,1
329814,8473506,5045474665701,1030308130,1
329814,8486527,5045474796184,1030308996,1
329850,8310958,5045473040141,1200107854,1
329850,8327879,5045473209357,0380207015,5
329850,8327880,5045473209364,0380207015,1
329850,8327883,5045473209395,0380207015,1
329850,8402652,5045473957142,0380208865,2
329850,8402654,5045473957166,0380208865,1
329850,8402656,5045473957180,0380208865,1
329850,8413387,5045474064498,0380208203,1
329850,8413388,5045474064504,0380208203,3
329850,8413389,5045474064511,0380208203,4
329850,8413391,5045474064535,0380208203,2
329850,8413392,5045474064542,0380208203,1
329851,8274944,5045472614114,0070207119,1
329851,8274946,5045472614138,0070207119,1
329851,8274948,5045472614152,0070207119,1
329851,8274949,5045472614169,0070207119,1
329851,8274952,5045472614190,0070207119,1
329851,8278236,5045472647037,0380207521,1
329851,8279122,5045472655896,0070207122,1
329851,8280265,5045472667325,0380207519,1
329851,8294229,5045472872859,1030307616,1
329851,8294230,5045472872866,1030307616,1
329851,8294231,5045472872873,1030307616,1
329851,8388604,5045473816661,0070208017,1
329851,8411765,5045474048276,0070208023,1
329851,8411769,5045474048313,0070208023,1
329851,8419465,5045474125274,0380208046,1
329851,8419466,5045474125281,0380208046,1
329851,8431895,5045474249574,0380208620,1
329851,8438284,5045474313466,0070208039,1
329851,8438857,5045474319192,0070208035,1
329851,8451234,5045474442968,0070208047,1
329851,8457725,5045474507872,0070208049,2
329851,8467739,5045474608036,0380208067,3
329851,8467741,5045474608050,0380208067,2
329851,8467742,5045474608067,0380208067,3
329851,8467743,5045474608074,0380208067,7
329851,8467769,5045474608333,0380208050,2
329851,8486517,5045474796085,1030308996,2
329851,8486518,5045474796092,1030308996,1
329330,6034562,2200860345626,1520106046,1
329330,6249514,2200862495145,0810108120,3
329330,6249515,2200862495152,0810108120,5
329330,6249516,2200862495169,0810108120,7
329330,6249520,2200862495206,0810108120,2
329330,6249522,2200862495220,0810108120,1
329330,6249523,2200862495237,0810108120,2
329330,6249524,2200862495244,0810108120,5
329330,6250575,2200862505752,0810108119,1
329330,6250577,2200862505776,0810108119,9
329330,6250578,2200862505783,0810108119,3
329330,6250583,2200862505837,0810108119,3
329330,6250590,2200862505905,0810108119,1
329330,6363842,2200863638428,0810108119,6
329330,6363846,2200863638466,0810108120,4
329330,6518245,2200865182455,1520103010,1
329330,6777780,2200867777802,0810103391,3
329330,6777785,2200867777857,0810103391,1
329330,6777788,2200867777888,0810103391,2
329330,6777790,2200867777901,0810103392,1
329330,6777792,2200867777925,0810103392,3
329330,6777795,2200867777956,0810103392,1
329330,6777796,2200867777963,0810103392,2
329330,6777804,2200867778045,0810103392,2
329330,6781539,2200867815399,0910104225,1
329330,6781547,2200867815474,0910104226,1
329330,6781548,2200867815481,0910104226,1
329330,7092705,2200870927058,0810107221,1
329330,7092711,2200870927119,0810107221,2
329330,7092712,2200870927126,0810107221,2
329330,7092719,2200870927195,0810107222,2
329330,7092720,2200870927201,0810107222,1
329330,7092728,2200870927287,0810107222,2
329331,5338547,2200853385479,1580101046,1
329331,5501581,2200855015817,1520102054,1
329331,5524599,2200855245993,1520102040,1
329331,5710610,2200857106100,1520104008,2
329331,6033940,2200860339403,1520106024,5
329331,6033941,2200860339410,1520106024,1
329331,6033942,2200860339427,1520106024,1
329331,6033943,2200860339434,1520106024,7
329331,6033944,2200860339441,1520106024,1
329331,6043890,2200860438908,1580106236,1
329331,6043893,2200860438939,1580106236,1
329331,6044050,2200860440505,1580106238,1
329331,6144119,2200861441198,1520107046,1
329331,6223525,2200862235253,1520108018,1
329331,6755817,2200867558173,1580104141,5
329331,6755818,2200867558180,1580104141,2
329331,6755819,2200867558197,1580104141,3
329331,6965974,2200869659748,1580104141,1
329331,6965975,2200869659755,1580104141,1
329331,6965976,2200869659762,1580104141,1
329683,5406434,2200854064342,0810101031,1
329683,5600322,2200856003226,2240109671,1
329683,5698194,2200856981944,810103081,3
329683,5698336,2200856983368,810103076,1
329683,5698337,2200856983375,0810103076,1
329683,5698339,2200856983399,0810103076,2
329683,5698340,2200856983405,0810103076,3
329683,5698343,2200856983436,0810103076,1
329683,5930149,2200859301497,810105123,1
329683,5930168,2200859301688,810105124,1
329683,5950245,2200859502450,0810105167,1
329683,5965905,2200859659055,810105196,2
329683,6249524,2200862495244,0810108120,1
329683,6250577,2200862505776,0810108119,2
329683,6255854,2200862558543,0810108122,2
329683,6255855,2200862558550,0810108122,5
329683,6520472,2200865204720,0810102103,1
329683,6520478,2200865204782,0810102103,1
329683,6520489,2200865204898,0810102105,1
329683,6520493,2200865204935,0810102105,2
329683,6520494,2200865204942,0810102105,1
329683,6599939,2200865999398,0810103244,2
329683,6620486,2200866204866,0810102090,1
329683,6728709,2200867287097,0810104200,1
329683,6761346,2200867613469,0810102109,1
329683,6916351,2200869163511,0810105285,3
329683,6916833,2200869168332,0810105282,1
329683,6916837,2200869168370,0810105282,1
329683,6916838,2200869168387,0810105282,2
329683,6917050,2200869170502,0810105284,2
329683,7123574,2200871235749,0810106204,1
329683,7695740,2200876957400,0810102009,2
329683,7695762,2200876957622,0810102007,1
329683,7695777,2200876957776,0810102007,1
329683,7695782,2200876957820,0810102008,1
329683,7695810,2200876958100,0810102008,7
329683,7695855,2200876958551,0810102012,2
